…
그림 1.1의 지도를 작성하려면 당연히 데이터가 필요하다. 여기서는 7.1절에서 사용된 파일을 불러와 사용하였다. 세 개 속성 변수에 대해 앞의 세 개 레코드만 요약한 결과는 다음과 같다.

```{r}
#| echo: false
#| results: false
nc |> select(AREA, BIR74, SID74) |> print(n = 3)
```

```         
# Simple feature collection with 100 features and 3 fields
# Geometry type: MULTIPOLYGON
# Dimension:     XY
# Bounding box:  xmin: -84.3 ymin: 33.9 xmax: -75.5 ymax: 36.6
# Geodetic CRS:  NAD27
# # A tibble: 100 × 4
#    AREA BIR74 SID74                                             geom
#   <dbl> <dbl> <dbl>                               <MULTIPOLYGON [°]>
# 1 0.114  1091     1 (((-81.5 36.2, -81.5 36.3, -81.6 36.3, -81.6 36…
# 2 0.061   487     0 (((-81.2 36.4, -81.2 36.4, -81.3 36.4, -81.3 36…
# 3 0.143  3188     5 (((-80.5 36.2, -80.5 36.3, -80.5 36.3, -80.5 36…
# # ℹ 97 more rows
```
…
