공간데이터사이언스 개론 - 1 시작하기
…
축의 눈금은 특정한 경도값과 위도값이다.

폴리곤은 특정한 형태의 지오메트리이다. 공간적 지오메트리(포인트, 라인, 폴리곤, 픽셀)에 대해서는 3장에서 자세히 다룬다. 폴리곤은 여러 개의 포인트들로 구성되어 있고, 포인트들은 선분으로 서로 이어져 있다. 공간데이터의 포인트 위치가 어떻게 표현되고 측정되는지에 대해서는 2장에서 다룬다. 그림 1.1에서 볼 수 있는 것처럼, 모든 경위선이 직선으로 표현되는 것이 아니다. 이것은 지도에 특정한 형태의 투영법이 적용되어 있음을 의미한다. 지도투영에 대해서는 2장과 8.1절에서 다룬다.

그림 1.1에서 컬러로 표현되어 있는 것은 BIR74라는 변수의 값이다. 값 하나는 지오메트리 혹은 피쳐(feature) 하나와 연결되어 있다. 5장은 이러한 피처 속성 및 그것들이 피처 지오메트리와 어떻게 관련되어 있는지에 대해서 다룰 것이다. BIR74 변수는 출생아수를 나타내며, 이는 지역별 빈도값이다. 지역별 빈도값이라는 말은 이 값이 지역 내의 모든 지점과 관련되어 있는 것이 아니라는 것을 의미하는데, 지도의 컬러가 연속적인 값을 취하고 있기 때문에 이렇게 오해할 수 있지만, 사실 빈도값은 폴리곤에 전체와 연결되어 있는 일종의 적분값을 의미한다.

그림 1.1을 그리기 위해서는 당연히 데이터가 필요한데, 7.1절에서 사용된 파일을 읽어 들였다. 세 개의 속성 변수에 대한 첫 세 개 레코드의 데이터 요약을 출력하면 다음과 같다.

# Simple feature collection with 100 features and 3 fields
# Geometry type: MULTIPOLYGON
# Dimension:     XY
# Bounding box:  xmin: -84.3 ymin: 33.9 xmax: -75.5 ymax: 36.6
# Geodetic CRS:  NAD27
# # A tibble: 100 × 4
#    AREA BIR74 SID74                                             geom
#   <dbl> <dbl> <dbl>                               <MULTIPOLYGON [°]>
# 1 0.114  1091     1 (((-81.5 36.2, -81.5 36.3, -81.6 36.3, -81.6 36…
# 2 0.061   487     0 (((-81.2 36.4, -81.2 36.4, -81.3 36.4, -81.3 36…
# 3 0.143  3188     5 (((-80.5 36.2, -80.5 36.3, -80.5 36.3, -80.5 36…
# # ℹ 97 more rows
…
